%YAML 1.1
%TAG !u! tag:unity3d.com,2011:
--- !u!114 &11400000
MonoBehaviour:
  m_ObjectHideFlags: 0
  m_CorrespondingSourceObject: {fileID: 0}
  m_PrefabInternal: {fileID: 0}
  m_GameObject: {fileID: 0}
  m_Enabled: 1
  m_EditorHideFlags: 0
  m_Script: {fileID: 11500000, guid: 0ff3e3cf42b90a14d8055a39e6bdc99c, type: 3}
  m_Name: Graf Zeppelin
  m_EditorClassIdentifier: 
  actorName: Graf Zeppelin
  prefab: {fileID: 1105654463695418, guid: dc5dfb0491ac83647859b45d4212aa6f, type: 2}
  HP: 0
  obstacle: 0
  dimensions: {x: 1, y: 0, z: 1}
  description: 
  sprite: {fileID: 21300000, guid: 8daffdb34b1ec664480c6e9d5b6a4f2d, type: 3}
  unitType: 4
  speed: 4
